0	0.75
3600	0.8
7200	0.8
10800	1.06666666666667
14400	0.833333333333333
18000	0.766666666666667
21600	1.16666666666667
25200	2.13333333333333
28800	2.5
32400	2.6
36000	3.53333333333333
39600	2.26666666666667
43200	1.95
46800	1.86666666666667
50400	1.68333333333333
54000	2.5
57600	2.26666666666667
61200	1.43333333333333
64800	1.15
68400	1
72000	1.3
75600	0.8
79200	0.566666666666667
82800	1.21666666666667
86400	1.35
90000	0.833333333333333
93600	1.5
97200	1.01666666666667
100800	0.766666666666667
104400	0.55
108000	1.1
111600	1.81666666666667
115200	1.81666666666667
118800	1.88333333333333
122400	2.78333333333333
126000	3.26666666666667
129600	3.2
133200	2.96666666666667
136800	2.86666666666667
140400	3.01666666666667
144000	3.16666666666667
147600	2
151200	1.21666666666667
154800	0.516666666666667
158400	0.983333333333333
162000	0.516666666666667
165600	0.516666666666667
169200	1.05
172800	1.88333333333333
176400	0.95
180000	0.75
183600	1.55
187200	1
190800	2.11666666666667
194400	2.11666666666667
198000	1.53333333333333
201600	2.55
205200	2.75
208800	3.36666666666667
212400	3.58333333333333
216000	3.1
219600	3.03333333333333
223200	2.65
226800	3
230400	2.31666666666667
234000	2.38333333333333
237600	2.23333333333333
241200	2.33333333333333
244800	2.71666666666667
248400	3.23333333333333
252000	3.78333333333333
255600	3.3
